package droolsrules

import com.springboot.bean.Data;
import com.springboot.drools.HandleTest;
import java.util.List;


function void handle(String param){
   HandleTest.handle(param);
}


rule "整刀掉电"
    no-loop true
    activation-group "group1"
    lock-on-active true
    salience 10
    when
       $nodeWrapper : Data(HandleTest.checkout(bladeNodeList,targetNodeList))
    then
        handle("整刀掉电");
end


rule "整箱掉电"
    no-loop true
    activation-group "group1"
    lock-on-active true
    salience 20
    when
       $nodeWrapper : Data(HandleTest.checkout(boxNodeList,targetNodeList))
    then
        handle("整箱掉电");
end


rule "整柜掉电"
    no-loop true
    activation-group "group1"
    lock-on-active true
    salience 30
    when
       $nodeWrapper : Data(HandleTest.checkout(cabinetNodeList,targetNodeList))
    then
        handle("整柜掉电");
end
